%YAML 1.1
%TAG !u! tag:unity3d.com,2011:
--- !u!1 &3876251825058072159
GameObject:
  m_ObjectHideFlags: 0
  m_CorrespondingSourceObject: {fileID: 0}
  m_PrefabInstance: {fileID: 0}
  m_PrefabAsset: {fileID: 0}
  serializedVersion: 6
  m_Component:
  - component: {fileID: 7054395604067632069}
  m_Layer: 0
  m_Name: Egg explosion
  m_TagString: Untagged
  m_Icon: {fileID: 0}
  m_NavMeshLayer: 0
  m_StaticEditorFlags: 0
  m_IsActive: 1
--- !u!4 &7054395604067632069
Transform:
  m_ObjectHideFlags: 0
  m_CorrespondingSourceObject: {fileID: 0}
  m_PrefabInstance: {fileID: 0}
  m_PrefabAsset: {fileID: 0}
  m_GameObject: {fileID: 3876251825058072159}
  m_LocalRotation: {x: 0, y: 0, z: 0, w: 1}
  m_LocalPosition: {x: -1.0502651, y: 0.30717543, z: -272.17853}
  m_LocalScale: {x: 1, y: 1, z: 1}
  m_Children:
  - {fileID: 3064116521853315041}
  m_Father: {fileID: 0}
  m_RootOrder: 0
  m_LocalEulerAnglesHint: {x: 0, y: 0, z: 0}
--- !u!1001 &3064116521853713761
PrefabInstance:
  m_ObjectHideFlags: 0
  serializedVersion: 2
  m_Modification:
    m_TransformParent: {fileID: 7054395604067632069}
    m_Modifications:
    - target: {fileID: 100000, guid: f2dba9e16cd347f44a395b8204544ee5, type: 3}
      propertyPath: m_Name
      value: CFX4 Hit Paint C (Cyan)
      objectReference: {fileID: 0}
    - target: {fileID: 400000, guid: f2dba9e16cd347f44a395b8204544ee5, type: 3}
      propertyPath: m_RootOrder
      value: 0
      objectReference: {fileID: 0}
    - target: {fileID: 400000, guid: f2dba9e16cd347f44a395b8204544ee5, type: 3}
      propertyPath: m_LocalPosition.x
      value: 0
      objectReference: {fileID: 0}
    - target: {fileID: 400000, guid: f2dba9e16cd347f44a395b8204544ee5, type: 3}
      propertyPath: m_LocalPosition.y
      value: 0
      objectReference: {fileID: 0}
    - target: {fileID: 400000, guid: f2dba9e16cd347f44a395b8204544ee5, type: 3}
      propertyPath: m_LocalPosition.z
      value: 0
      objectReference: {fileID: 0}
    - target: {fileID: 400000, guid: f2dba9e16cd347f44a395b8204544ee5, type: 3}
      propertyPath: m_LocalRotation.w
      value: 1
      objectReference: {fileID: 0}
    - target: {fileID: 400000, guid: f2dba9e16cd347f44a395b8204544ee5, type: 3}
      propertyPath: m_LocalRotation.x
      value: -0
      objectReference: {fileID: 0}
    - target: {fileID: 400000, guid: f2dba9e16cd347f44a395b8204544ee5, type: 3}
      propertyPath: m_LocalRotation.y
      value: -0
      objectReference: {fileID: 0}
    - target: {fileID: 400000, guid: f2dba9e16cd347f44a395b8204544ee5, type: 3}
      propertyPath: m_LocalRotation.z
      value: -0
      objectReference: {fileID: 0}
    - target: {fileID: 400000, guid: f2dba9e16cd347f44a395b8204544ee5, type: 3}
      propertyPath: m_LocalEulerAnglesHint.x
      value: 0
      objectReference: {fileID: 0}
    - target: {fileID: 400000, guid: f2dba9e16cd347f44a395b8204544ee5, type: 3}
      propertyPath: m_LocalEulerAnglesHint.y
      value: 0
      objectReference: {fileID: 0}
    - target: {fileID: 400000, guid: f2dba9e16cd347f44a395b8204544ee5, type: 3}
      propertyPath: m_LocalEulerAnglesHint.z
      value: 0
      objectReference: {fileID: 0}
    - target: {fileID: 19800000, guid: f2dba9e16cd347f44a395b8204544ee5, type: 3}
      propertyPath: stopAction
      value: 2
      objectReference: {fileID: 0}
    - target: {fileID: 19800000, guid: f2dba9e16cd347f44a395b8204544ee5, type: 3}
      propertyPath: InitialModule.startColor.maxColor.b
      value: 0
      objectReference: {fileID: 0}
    - target: {fileID: 19800000, guid: f2dba9e16cd347f44a395b8204544ee5, type: 3}
      propertyPath: InitialModule.startColor.maxColor.g
      value: 1
      objectReference: {fileID: 0}
    - target: {fileID: 19800000, guid: f2dba9e16cd347f44a395b8204544ee5, type: 3}
      propertyPath: InitialModule.startColor.maxColor.r
      value: 0.96101236
      objectReference: {fileID: 0}
    - target: {fileID: 19800002, guid: f2dba9e16cd347f44a395b8204544ee5, type: 3}
      propertyPath: stopAction
      value: 2
      objectReference: {fileID: 0}
    - target: {fileID: 19800002, guid: f2dba9e16cd347f44a395b8204544ee5, type: 3}
      propertyPath: InitialModule.startColor.maxColor.b
      value: 1
      objectReference: {fileID: 0}
    - target: {fileID: 19800002, guid: f2dba9e16cd347f44a395b8204544ee5, type: 3}
      propertyPath: InitialModule.startColor.maxColor.g
      value: 1
      objectReference: {fileID: 0}
    - target: {fileID: 19800002, guid: f2dba9e16cd347f44a395b8204544ee5, type: 3}
      propertyPath: InitialModule.startColor.maxColor.r
      value: 1
      objectReference: {fileID: 0}
    - target: {fileID: 19800002, guid: f2dba9e16cd347f44a395b8204544ee5, type: 3}
      propertyPath: InitialModule.startSizeY.minMaxState
      value: 3
      objectReference: {fileID: 0}
    - target: {fileID: 19800002, guid: f2dba9e16cd347f44a395b8204544ee5, type: 3}
      propertyPath: InitialModule.startSizeZ.minMaxState
      value: 3
      objectReference: {fileID: 0}
    - target: {fileID: 19800002, guid: f2dba9e16cd347f44a395b8204544ee5, type: 3}
      propertyPath: InitialModule.startRotationX.minMaxState
      value: 3
      objectReference: {fileID: 0}
    - target: {fileID: 19800002, guid: f2dba9e16cd347f44a395b8204544ee5, type: 3}
      propertyPath: InitialModule.startRotationY.minMaxState
      value: 3
      objectReference: {fileID: 0}
    - target: {fileID: 19900000, guid: f2dba9e16cd347f44a395b8204544ee5, type: 3}
      propertyPath: m_Materials.Array.size
      value: 1
      objectReference: {fileID: 0}
    - target: {fileID: 19900002, guid: f2dba9e16cd347f44a395b8204544ee5, type: 3}
      propertyPath: m_Materials.Array.size
      value: 1
      objectReference: {fileID: 0}
    m_RemovedComponents: []
  m_SourcePrefab: {fileID: 100100000, guid: f2dba9e16cd347f44a395b8204544ee5, type: 3}
--- !u!4 &3064116521853315041 stripped
Transform:
  m_CorrespondingSourceObject: {fileID: 400000, guid: f2dba9e16cd347f44a395b8204544ee5, type: 3}
  m_PrefabInstance: {fileID: 3064116521853713761}
  m_PrefabAsset: {fileID: 0}
